module aws-s3-sample

go 1.16

require (
	github.com/aws/aws-sdk-go v1.40.27
	github.com/go-sql-driver/mysql v1.6.0
	github.com/gorilla/mux v1.8.0
	github.com/joho/godotenv v1.3.0
	golang.org/x/crypto v0.0.0-20210817164053-32db794688a5
)
